^\\NASWINHOME\U\HALLE\HEFELEAL\HOME_WIN\DATA\DESKTOP\GAMEPHYSICS\DXUT11\CORE\BIN\DIRECTXTK_2012\X64\DEBUG\DXERR.OBJ|\\NASWINHOME\U\HALLE\HEFELEAL\HOME_WIN\DATA\DESKTOP\GAMEPHYSICS\DXUT11\CORE\BIN\DIRECTXTK_2012\X64\DEBUG\DXUT.OBJ|\\NASWINHOME\U\HALLE\HEFELEAL\HOME_WIN\DATA\DESKTOP\GAMEPHYSICS\DXUT11\CORE\BIN\DIRECTXTK_2012\X64\DEBUG\DXUTDEVICE11.OBJ|\\NASWINHOME\U\HALLE\HEFELEAL\HOME_WIN\DATA\DESKTOP\GAMEPHYSICS\DXUT11\CORE\BIN\DIRECTXTK_2012\X64\DEBUG\DXUTMISC.OBJ
C:\WINDOWS\SYSTEM32\TZRES.DLL
\\NASWINHOME\U\HALLE\HEFELEAL\HOME_WIN\DATA\DESKTOP\GAMEPHYSICS\DXUT11\CORE\BIN\DIRECTXTK_2012\X64\DEBUG\DXUT.OBJ
\\NASWINHOME\U\HALLE\HEFELEAL\HOME_WIN\DATA\DESKTOP\GAMEPHYSICS\DXUT11\CORE\BIN\DIRECTXTK_2012\X64\DEBUG\DXUTDEVICE11.OBJ
\\NASWINHOME\U\HALLE\HEFELEAL\HOME_WIN\DATA\DESKTOP\GAMEPHYSICS\DXUT11\CORE\BIN\DIRECTXTK_2012\X64\DEBUG\DXUTMISC.OBJ
\\NASWINHOME\U\HALLE\HEFELEAL\HOME_WIN\DATA\DESKTOP\GAMEPHYSICS\DXUT11\CORE\BIN\DIRECTXTK_2012\X64\DEBUG\DXERR.OBJ
C:\WINDOWS\GLOBALIZATION\SORTING\SORTDEFAULT.NLS
