^C:\USERS\ALEXANDER\DOCUMENTS\2014-15 WS\GAME PHYSICS\VS_DX_TEMPLATE_GAMEPHYSICS\DXUT11\OPTIONAL\BIN\DIRECTXTK_2013\X64\DEBUG\DXUTCAMERA.OBJ|C:\USERS\ALEXANDER\DOCUMENTS\2014-15 WS\GAME PHYSICS\VS_DX_TEMPLATE_GAMEPHYSICS\DXUT11\OPTIONAL\BIN\DIRECTXTK_2013\X64\DEBUG\DXUTGUI.OBJ|C:\USERS\ALEXANDER\DOCUMENTS\2014-15 WS\GAME PHYSICS\VS_DX_TEMPLATE_GAMEPHYSICS\DXUT11\OPTIONAL\BIN\DIRECTXTK_2013\X64\DEBUG\DXUTGUIIME.OBJ|C:\USERS\ALEXANDER\DOCUMENTS\2014-15 WS\GAME PHYSICS\VS_DX_TEMPLATE_GAMEPHYSICS\DXUT11\OPTIONAL\BIN\DIRECTXTK_2013\X64\DEBUG\DXUTRES.OBJ|C:\USERS\ALEXANDER\DOCUMENTS\2014-15 WS\GAME PHYSICS\VS_DX_TEMPLATE_GAMEPHYSICS\DXUT11\OPTIONAL\BIN\DIRECTXTK_2013\X64\DEBUG\DXUTSETTINGSDLG.OBJ|C:\USERS\ALEXANDER\DOCUMENTS\2014-15 WS\GAME PHYSICS\VS_DX_TEMPLATE_GAMEPHYSICS\DXUT11\OPTIONAL\BIN\DIRECTXTK_2013\X64\DEBUG\IMEUI.OBJ|C:\USERS\ALEXANDER\DOCUMENTS\2014-15 WS\GAME PHYSICS\VS_DX_TEMPLATE_GAMEPHYSICS\DXUT11\OPTIONAL\BIN\DIRECTXTK_2013\X64\DEBUG\SDKMISC.OBJ
C:\WINDOWS\SYSTEM32\TZRES.DLL
C:\USERS\ALEXANDER\DOCUMENTS\2014-15 WS\GAME PHYSICS\VS_DX_TEMPLATE_GAMEPHYSICS\DXUT11\OPTIONAL\BIN\DIRECTXTK_2013\X64\DEBUG\DXUTCAMERA.OBJ
C:\USERS\ALEXANDER\DOCUMENTS\2014-15 WS\GAME PHYSICS\VS_DX_TEMPLATE_GAMEPHYSICS\DXUT11\OPTIONAL\BIN\DIRECTXTK_2013\X64\DEBUG\DXUTGUI.OBJ
C:\USERS\ALEXANDER\DOCUMENTS\2014-15 WS\GAME PHYSICS\VS_DX_TEMPLATE_GAMEPHYSICS\DXUT11\OPTIONAL\BIN\DIRECTXTK_2013\X64\DEBUG\DXUTGUIIME.OBJ
C:\USERS\ALEXANDER\DOCUMENTS\2014-15 WS\GAME PHYSICS\VS_DX_TEMPLATE_GAMEPHYSICS\DXUT11\OPTIONAL\BIN\DIRECTXTK_2013\X64\DEBUG\DXUTRES.OBJ
C:\USERS\ALEXANDER\DOCUMENTS\2014-15 WS\GAME PHYSICS\VS_DX_TEMPLATE_GAMEPHYSICS\DXUT11\OPTIONAL\BIN\DIRECTXTK_2013\X64\DEBUG\DXUTSETTINGSDLG.OBJ
C:\USERS\ALEXANDER\DOCUMENTS\2014-15 WS\GAME PHYSICS\VS_DX_TEMPLATE_GAMEPHYSICS\DXUT11\OPTIONAL\BIN\DIRECTXTK_2013\X64\DEBUG\IMEUI.OBJ
C:\USERS\ALEXANDER\DOCUMENTS\2014-15 WS\GAME PHYSICS\VS_DX_TEMPLATE_GAMEPHYSICS\DXUT11\OPTIONAL\BIN\DIRECTXTK_2013\X64\DEBUG\SDKMISC.OBJ
C:\WINDOWS\GLOBALIZATION\SORTING\SORTDEFAULT.NLS
