^C:\USERS\ALEXANDER\DOCUMENTS\2014-15 WS\GAME PHYSICS\VS_DX_TEMPLATE_GAMEPHYSICS\DEMO\EFFECT.FX
C:\PROGRAM FILES (X86)\WINDOWS KITS\8.1\BIN\X86\FXC.EXE
C:\WINDOWS\SYSTEM32\RSAENH.DLL
C:\WINDOWS\GLOBALIZATION\SORTING\SORTDEFAULT.NLS
