^C:\USERS\ALEXANDER\DOCUMENTS\2014-15 WS\GAME PHYSICS\VS_DX_TEMPLATE_GAMEPHYSICS\ANTTWEAKBAR\LIB\DEBUG\ANTTWEAKBAR.LIB|C:\USERS\ALEXANDER\DOCUMENTS\2014-15 WS\GAME PHYSICS\VS_DX_TEMPLATE_GAMEPHYSICS\DEMO\DEBUG\FFMPEG.OBJ|C:\USERS\ALEXANDER\DOCUMENTS\2014-15 WS\GAME PHYSICS\VS_DX_TEMPLATE_GAMEPHYSICS\DEMO\DEBUG\MAIN.OBJ|C:\USERS\ALEXANDER\DOCUMENTS\2014-15 WS\GAME PHYSICS\VS_DX_TEMPLATE_GAMEPHYSICS\DEMO\DEBUG\UTIL.OBJ|C:\USERS\ALEXANDER\DOCUMENTS\2014-15 WS\GAME PHYSICS\VS_DX_TEMPLATE_GAMEPHYSICS\DIRECTXTK\BIN\DESKTOP_2013\WIN32\DEBUG\DIRECTXTK.LIB|C:\USERS\ALEXANDER\DOCUMENTS\2014-15 WS\GAME PHYSICS\VS_DX_TEMPLATE_GAMEPHYSICS\DXUT11\CORE\BIN\DIRECTXTK_2013\WIN32\DEBUG\DXUT.LIB|C:\USERS\ALEXANDER\DOCUMENTS\2014-15 WS\GAME PHYSICS\VS_DX_TEMPLATE_GAMEPHYSICS\DXUT11\OPTIONAL\BIN\DIRECTXTK_2013\WIN32\DEBUG\DXUTOPT.LIB|C:\USERS\ALEXANDER\DOCUMENTS\2014-15 WS\GAME PHYSICS\VS_DX_TEMPLATE_GAMEPHYSICS\EFFECTS11\BIN\DESKTOP_2013\WIN32\DEBUG\EFFECTS11.LIB
C:\PROGRAM FILES (X86)\WINDOWS KITS\8.1\LIB\WINV6.3\UM\X86\D3DCOMPILER.LIB
C:\PROGRAM FILES (X86)\WINDOWS KITS\8.1\LIB\WINV6.3\UM\X86\MF.LIB
C:\PROGRAM FILES (X86)\WINDOWS KITS\8.1\LIB\WINV6.3\UM\X86\MFUUID.LIB
C:\PROGRAM FILES (X86)\WINDOWS KITS\8.1\LIB\WINV6.3\UM\X86\MFPLAT.LIB
C:\PROGRAM FILES (X86)\WINDOWS KITS\8.1\LIB\WINV6.3\UM\X86\MFREADWRITE.LIB
C:\PROGRAM FILES (X86)\WINDOWS KITS\8.1\LIB\WINV6.3\UM\X86\COMCTL32.LIB
C:\PROGRAM FILES (X86)\WINDOWS KITS\8.1\LIB\WINV6.3\UM\X86\KERNEL32.LIB
C:\PROGRAM FILES (X86)\WINDOWS KITS\8.1\LIB\WINV6.3\UM\X86\USER32.LIB
C:\PROGRAM FILES (X86)\WINDOWS KITS\8.1\LIB\WINV6.3\UM\X86\GDI32.LIB
C:\PROGRAM FILES (X86)\WINDOWS KITS\8.1\LIB\WINV6.3\UM\X86\WINSPOOL.LIB
C:\PROGRAM FILES (X86)\WINDOWS KITS\8.1\LIB\WINV6.3\UM\X86\COMDLG32.LIB
C:\PROGRAM FILES (X86)\WINDOWS KITS\8.1\LIB\WINV6.3\UM\X86\ADVAPI32.LIB
C:\PROGRAM FILES (X86)\WINDOWS KITS\8.1\LIB\WINV6.3\UM\X86\SHELL32.LIB
C:\PROGRAM FILES (X86)\WINDOWS KITS\8.1\LIB\WINV6.3\UM\X86\OLE32.LIB
C:\PROGRAM FILES (X86)\WINDOWS KITS\8.1\LIB\WINV6.3\UM\X86\OLEAUT32.LIB
C:\PROGRAM FILES (X86)\WINDOWS KITS\8.1\LIB\WINV6.3\UM\X86\UUID.LIB
C:\PROGRAM FILES (X86)\WINDOWS KITS\8.1\LIB\WINV6.3\UM\X86\ODBC32.LIB
C:\PROGRAM FILES (X86)\WINDOWS KITS\8.1\LIB\WINV6.3\UM\X86\ODBCCP32.LIB
C:\USERS\ALEXANDER\DOCUMENTS\2014-15 WS\GAME PHYSICS\VS_DX_TEMPLATE_GAMEPHYSICS\DEMO\DEBUG\MAIN.OBJ
C:\USERS\ALEXANDER\DOCUMENTS\2014-15 WS\GAME PHYSICS\VS_DX_TEMPLATE_GAMEPHYSICS\DEMO\DEBUG\FFMPEG.OBJ
C:\USERS\ALEXANDER\DOCUMENTS\2014-15 WS\GAME PHYSICS\VS_DX_TEMPLATE_GAMEPHYSICS\DEMO\DEBUG\UTIL.OBJ
C:\USERS\ALEXANDER\DOCUMENTS\2014-15 WS\GAME PHYSICS\VS_DX_TEMPLATE_GAMEPHYSICS\ANTTWEAKBAR\LIB\DEBUG\ANTTWEAKBAR.LIB
C:\USERS\ALEXANDER\DOCUMENTS\2014-15 WS\GAME PHYSICS\VS_DX_TEMPLATE_GAMEPHYSICS\DIRECTXTK\BIN\DESKTOP_2013\WIN32\DEBUG\DIRECTXTK.LIB
C:\USERS\ALEXANDER\DOCUMENTS\2014-15 WS\GAME PHYSICS\VS_DX_TEMPLATE_GAMEPHYSICS\DXUT11\CORE\BIN\DIRECTXTK_2013\WIN32\DEBUG\DXUT.LIB
C:\USERS\ALEXANDER\DOCUMENTS\2014-15 WS\GAME PHYSICS\VS_DX_TEMPLATE_GAMEPHYSICS\DXUT11\OPTIONAL\BIN\DIRECTXTK_2013\WIN32\DEBUG\DXUTOPT.LIB
C:\USERS\ALEXANDER\DOCUMENTS\2014-15 WS\GAME PHYSICS\VS_DX_TEMPLATE_GAMEPHYSICS\EFFECTS11\BIN\DESKTOP_2013\WIN32\DEBUG\EFFECTS11.LIB
C:\WINDOWS\GLOBALIZATION\SORTING\SORTDEFAULT.NLS
C:\PROGRAM FILES (X86)\MICROSOFT VISUAL STUDIO 12.0\VC\LIB\MSVCPRTD.LIB
C:\PROGRAM FILES (X86)\WINDOWS KITS\8.1\LIB\WINV6.3\UM\X86\DXGUID.LIB
C:\PROGRAM FILES (X86)\MICROSOFT VISUAL STUDIO 12.0\VC\LIB\MSVCRTD.LIB
C:\PROGRAM FILES (X86)\MICROSOFT VISUAL STUDIO 12.0\VC\LIB\OLDNAMES.LIB
C:\PROGRAM FILES (X86)\WINDOWS KITS\8.1\BIN\X86\RC.EXE
C:\PROGRAM FILES (X86)\MICROSOFT VISUAL STUDIO 12.0\VC\BIN\CVTRES.EXE
C:\WINDOWS\SYSTEM32\TZRES.DLL
C:\WINDOWS\SYSTEM32\RSAENH.DLL
