^C:\USERS\ALEXANDER\DOCUMENTS\2014-15 WS\GAME PHYSICS\VS_DX_TEMPLATE_GAMEPHYSICS\EFFECTS11\D3DXGLOBAL.CPP
/c /I.\Binary /I.\Inc /ZI /nologo /W4 /WX- /Od /Oi /Oy- /D _WIN7_PLATFORM_UPDATE /D WIN32 /D _DEBUG /D DEBUG /D PROFILE /D _WINDOWS /D _LIB /D D3DXFX_LARGEADDRESS_HANDLE /D _WIN32_WINNT=0x0600 /D _UNICODE /D UNICODE /Gm- /EHsc /RTC1 /MDd /GS /arch:SSE2 /fp:fast /Zc:wchar_t /Zc:forScope /openmp- /Yc"pchfx.h" /Fp"BIN\DESKTOP_2013\WIN32\DEBUG\EFFECTS11.PCH" /Fo"BIN\DESKTOP_2013\WIN32\DEBUG\\" /Fd"BIN\DESKTOP_2013\WIN32\DEBUG\EFFECTS11.PDB" /Gd /TP /analyze-   C:\USERS\ALEXANDER\DOCUMENTS\2014-15 WS\GAME PHYSICS\VS_DX_TEMPLATE_GAMEPHYSICS\EFFECTS11\D3DXGLOBAL.CPP
^C:\USERS\ALEXANDER\DOCUMENTS\2014-15 WS\GAME PHYSICS\VS_DX_TEMPLATE_GAMEPHYSICS\EFFECTS11\EFFECTAPI.CPP
/c /I.\Binary /I.\Inc /ZI /nologo /W4 /WX- /Od /Oi /Oy- /D _WIN7_PLATFORM_UPDATE /D WIN32 /D _DEBUG /D DEBUG /D PROFILE /D _WINDOWS /D _LIB /D D3DXFX_LARGEADDRESS_HANDLE /D _WIN32_WINNT=0x0600 /D _UNICODE /D UNICODE /Gm- /EHsc /RTC1 /MDd /GS /arch:SSE2 /fp:fast /Zc:wchar_t /Zc:forScope /openmp- /Yu"pchfx.h" /Fp"BIN\DESKTOP_2013\WIN32\DEBUG\EFFECTS11.PCH" /Fo"BIN\DESKTOP_2013\WIN32\DEBUG\\" /Fd"BIN\DESKTOP_2013\WIN32\DEBUG\EFFECTS11.PDB" /Gd /TP /analyze-   C:\USERS\ALEXANDER\DOCUMENTS\2014-15 WS\GAME PHYSICS\VS_DX_TEMPLATE_GAMEPHYSICS\EFFECTS11\EFFECTAPI.CPP
^C:\USERS\ALEXANDER\DOCUMENTS\2014-15 WS\GAME PHYSICS\VS_DX_TEMPLATE_GAMEPHYSICS\EFFECTS11\EFFECTLOAD.CPP
/c /I.\Binary /I.\Inc /ZI /nologo /W4 /WX- /Od /Oi /Oy- /D _WIN7_PLATFORM_UPDATE /D WIN32 /D _DEBUG /D DEBUG /D PROFILE /D _WINDOWS /D _LIB /D D3DXFX_LARGEADDRESS_HANDLE /D _WIN32_WINNT=0x0600 /D _UNICODE /D UNICODE /Gm- /EHsc /RTC1 /MDd /GS /arch:SSE2 /fp:fast /Zc:wchar_t /Zc:forScope /openmp- /Yu"pchfx.h" /Fp"BIN\DESKTOP_2013\WIN32\DEBUG\EFFECTS11.PCH" /Fo"BIN\DESKTOP_2013\WIN32\DEBUG\\" /Fd"BIN\DESKTOP_2013\WIN32\DEBUG\EFFECTS11.PDB" /Gd /TP /analyze-   C:\USERS\ALEXANDER\DOCUMENTS\2014-15 WS\GAME PHYSICS\VS_DX_TEMPLATE_GAMEPHYSICS\EFFECTS11\EFFECTLOAD.CPP
^C:\USERS\ALEXANDER\DOCUMENTS\2014-15 WS\GAME PHYSICS\VS_DX_TEMPLATE_GAMEPHYSICS\EFFECTS11\EFFECTNONRUNTIME.CPP
/c /I.\Binary /I.\Inc /ZI /nologo /W4 /WX- /Od /Oi /Oy- /D _WIN7_PLATFORM_UPDATE /D WIN32 /D _DEBUG /D DEBUG /D PROFILE /D _WINDOWS /D _LIB /D D3DXFX_LARGEADDRESS_HANDLE /D _WIN32_WINNT=0x0600 /D _UNICODE /D UNICODE /Gm- /EHsc /RTC1 /MDd /GS /arch:SSE2 /fp:fast /Zc:wchar_t /Zc:forScope /openmp- /Yu"pchfx.h" /Fp"BIN\DESKTOP_2013\WIN32\DEBUG\EFFECTS11.PCH" /Fo"BIN\DESKTOP_2013\WIN32\DEBUG\\" /Fd"BIN\DESKTOP_2013\WIN32\DEBUG\EFFECTS11.PDB" /Gd /TP /analyze-   C:\USERS\ALEXANDER\DOCUMENTS\2014-15 WS\GAME PHYSICS\VS_DX_TEMPLATE_GAMEPHYSICS\EFFECTS11\EFFECTNONRUNTIME.CPP
^C:\USERS\ALEXANDER\DOCUMENTS\2014-15 WS\GAME PHYSICS\VS_DX_TEMPLATE_GAMEPHYSICS\EFFECTS11\EFFECTREFLECTION.CPP
/c /I.\Binary /I.\Inc /ZI /nologo /W4 /WX- /Od /Oi /Oy- /D _WIN7_PLATFORM_UPDATE /D WIN32 /D _DEBUG /D DEBUG /D PROFILE /D _WINDOWS /D _LIB /D D3DXFX_LARGEADDRESS_HANDLE /D _WIN32_WINNT=0x0600 /D _UNICODE /D UNICODE /Gm- /EHsc /RTC1 /MDd /GS /arch:SSE2 /fp:fast /Zc:wchar_t /Zc:forScope /openmp- /Yu"pchfx.h" /Fp"BIN\DESKTOP_2013\WIN32\DEBUG\EFFECTS11.PCH" /Fo"BIN\DESKTOP_2013\WIN32\DEBUG\\" /Fd"BIN\DESKTOP_2013\WIN32\DEBUG\EFFECTS11.PDB" /Gd /TP /analyze-   C:\USERS\ALEXANDER\DOCUMENTS\2014-15 WS\GAME PHYSICS\VS_DX_TEMPLATE_GAMEPHYSICS\EFFECTS11\EFFECTREFLECTION.CPP
^C:\USERS\ALEXANDER\DOCUMENTS\2014-15 WS\GAME PHYSICS\VS_DX_TEMPLATE_GAMEPHYSICS\EFFECTS11\EFFECTRUNTIME.CPP
/c /I.\Binary /I.\Inc /ZI /nologo /W4 /WX- /Od /Oi /Oy- /D _WIN7_PLATFORM_UPDATE /D WIN32 /D _DEBUG /D DEBUG /D PROFILE /D _WINDOWS /D _LIB /D D3DXFX_LARGEADDRESS_HANDLE /D _WIN32_WINNT=0x0600 /D _UNICODE /D UNICODE /Gm- /EHsc /RTC1 /MDd /GS /arch:SSE2 /fp:fast /Zc:wchar_t /Zc:forScope /openmp- /Yu"pchfx.h" /Fp"BIN\DESKTOP_2013\WIN32\DEBUG\EFFECTS11.PCH" /Fo"BIN\DESKTOP_2013\WIN32\DEBUG\\" /Fd"BIN\DESKTOP_2013\WIN32\DEBUG\EFFECTS11.PDB" /Gd /TP /analyze-   C:\USERS\ALEXANDER\DOCUMENTS\2014-15 WS\GAME PHYSICS\VS_DX_TEMPLATE_GAMEPHYSICS\EFFECTS11\EFFECTRUNTIME.CPP
