^C:\USERS\ALEXANDER\DOCUMENTS\2014-15 WS\GAME PHYSICS\VS_DX_TEMPLATE_GAMEPHYSICS\DXUT11\OPTIONAL\DXUTRES.CPP
/c /I..\..\DirectXTK\Inc /I..\Core\ /ZI /nologo /W4 /WX- /Od /Oi /Oy- /D WIN32 /D _DEBUG /D DEBUG /D PROFILE /D _WINDOWS /D _LIB /D USE_DIRECTXTK /D USE_DIRECT3D11_2 /D _WIN32_WINNT=0x0600 /D _UNICODE /D UNICODE /Gm- /EHsc /RTC1 /MDd /GS /arch:SSE2 /fp:fast /Zc:wchar_t /Zc:forScope /openmp- /Yc"DXUT.h" /Fp"BIN\DIRECTXTK_2013\WIN32\DEBUG\DXUTOPT.PCH" /Fo"BIN\DIRECTXTK_2013\WIN32\DEBUG\\" /Fd"BIN\DIRECTXTK_2013\WIN32\DEBUG\DXUTOPT.PDB" /Gd /TP /analyze-   C:\USERS\ALEXANDER\DOCUMENTS\2014-15 WS\GAME PHYSICS\VS_DX_TEMPLATE_GAMEPHYSICS\DXUT11\OPTIONAL\DXUTRES.CPP
^C:\USERS\ALEXANDER\DOCUMENTS\2014-15 WS\GAME PHYSICS\VS_DX_TEMPLATE_GAMEPHYSICS\DXUT11\OPTIONAL\DXUTCAMERA.CPP
/c /I..\..\DirectXTK\Inc /I..\Core\ /ZI /nologo /W4 /WX- /Od /Oi /Oy- /D WIN32 /D _DEBUG /D DEBUG /D PROFILE /D _WINDOWS /D _LIB /D USE_DIRECTXTK /D USE_DIRECT3D11_2 /D _WIN32_WINNT=0x0600 /D _UNICODE /D UNICODE /Gm- /EHsc /RTC1 /MDd /GS /arch:SSE2 /fp:fast /Zc:wchar_t /Zc:forScope /openmp- /Yu"DXUT.h" /Fp"BIN\DIRECTXTK_2013\WIN32\DEBUG\DXUTOPT.PCH" /Fo"BIN\DIRECTXTK_2013\WIN32\DEBUG\\" /Fd"BIN\DIRECTXTK_2013\WIN32\DEBUG\DXUTOPT.PDB" /Gd /TP /analyze-   C:\USERS\ALEXANDER\DOCUMENTS\2014-15 WS\GAME PHYSICS\VS_DX_TEMPLATE_GAMEPHYSICS\DXUT11\OPTIONAL\DXUTCAMERA.CPP
^C:\USERS\ALEXANDER\DOCUMENTS\2014-15 WS\GAME PHYSICS\VS_DX_TEMPLATE_GAMEPHYSICS\DXUT11\OPTIONAL\DXUTGUI.CPP
/c /I..\..\DirectXTK\Inc /I..\Core\ /ZI /nologo /W4 /WX- /Od /Oi /Oy- /D WIN32 /D _DEBUG /D DEBUG /D PROFILE /D _WINDOWS /D _LIB /D USE_DIRECTXTK /D USE_DIRECT3D11_2 /D _WIN32_WINNT=0x0600 /D _UNICODE /D UNICODE /Gm- /EHsc /RTC1 /MDd /GS /arch:SSE2 /fp:fast /Zc:wchar_t /Zc:forScope /openmp- /Yu"DXUT.h" /Fp"BIN\DIRECTXTK_2013\WIN32\DEBUG\DXUTOPT.PCH" /Fo"BIN\DIRECTXTK_2013\WIN32\DEBUG\\" /Fd"BIN\DIRECTXTK_2013\WIN32\DEBUG\DXUTOPT.PDB" /Gd /TP /analyze-   C:\USERS\ALEXANDER\DOCUMENTS\2014-15 WS\GAME PHYSICS\VS_DX_TEMPLATE_GAMEPHYSICS\DXUT11\OPTIONAL\DXUTGUI.CPP
^C:\USERS\ALEXANDER\DOCUMENTS\2014-15 WS\GAME PHYSICS\VS_DX_TEMPLATE_GAMEPHYSICS\DXUT11\OPTIONAL\DXUTGUIIME.CPP
/c /I..\..\DirectXTK\Inc /I..\Core\ /ZI /nologo /W4 /WX- /Od /Oi /Oy- /D WIN32 /D _DEBUG /D DEBUG /D PROFILE /D _WINDOWS /D _LIB /D USE_DIRECTXTK /D USE_DIRECT3D11_2 /D _WIN32_WINNT=0x0600 /D _UNICODE /D UNICODE /Gm- /EHsc /RTC1 /MDd /GS /arch:SSE2 /fp:fast /Zc:wchar_t /Zc:forScope /openmp- /Yu"DXUT.h" /Fp"BIN\DIRECTXTK_2013\WIN32\DEBUG\DXUTOPT.PCH" /Fo"BIN\DIRECTXTK_2013\WIN32\DEBUG\\" /Fd"BIN\DIRECTXTK_2013\WIN32\DEBUG\DXUTOPT.PDB" /Gd /TP /analyze-   C:\USERS\ALEXANDER\DOCUMENTS\2014-15 WS\GAME PHYSICS\VS_DX_TEMPLATE_GAMEPHYSICS\DXUT11\OPTIONAL\DXUTGUIIME.CPP
^C:\USERS\ALEXANDER\DOCUMENTS\2014-15 WS\GAME PHYSICS\VS_DX_TEMPLATE_GAMEPHYSICS\DXUT11\OPTIONAL\DXUTSETTINGSDLG.CPP
/c /I..\..\DirectXTK\Inc /I..\Core\ /ZI /nologo /W4 /WX- /Od /Oi /Oy- /D WIN32 /D _DEBUG /D DEBUG /D PROFILE /D _WINDOWS /D _LIB /D USE_DIRECTXTK /D USE_DIRECT3D11_2 /D _WIN32_WINNT=0x0600 /D _UNICODE /D UNICODE /Gm- /EHsc /RTC1 /MDd /GS /arch:SSE2 /fp:fast /Zc:wchar_t /Zc:forScope /openmp- /Yu"DXUT.h" /Fp"BIN\DIRECTXTK_2013\WIN32\DEBUG\DXUTOPT.PCH" /Fo"BIN\DIRECTXTK_2013\WIN32\DEBUG\\" /Fd"BIN\DIRECTXTK_2013\WIN32\DEBUG\DXUTOPT.PDB" /Gd /TP /analyze-   C:\USERS\ALEXANDER\DOCUMENTS\2014-15 WS\GAME PHYSICS\VS_DX_TEMPLATE_GAMEPHYSICS\DXUT11\OPTIONAL\DXUTSETTINGSDLG.CPP
^C:\USERS\ALEXANDER\DOCUMENTS\2014-15 WS\GAME PHYSICS\VS_DX_TEMPLATE_GAMEPHYSICS\DXUT11\OPTIONAL\IMEUI.CPP
/c /I..\..\DirectXTK\Inc /I..\Core\ /ZI /nologo /W4 /WX- /Od /Oi /Oy- /D WIN32 /D _DEBUG /D DEBUG /D PROFILE /D _WINDOWS /D _LIB /D USE_DIRECTXTK /D USE_DIRECT3D11_2 /D _WIN32_WINNT=0x0600 /D _UNICODE /D UNICODE /Gm- /EHsc /RTC1 /MDd /GS /arch:SSE2 /fp:fast /Zc:wchar_t /Zc:forScope /openmp- /Yu"DXUT.h" /Fp"BIN\DIRECTXTK_2013\WIN32\DEBUG\DXUTOPT.PCH" /Fo"BIN\DIRECTXTK_2013\WIN32\DEBUG\\" /Fd"BIN\DIRECTXTK_2013\WIN32\DEBUG\DXUTOPT.PDB" /Gd /TP /analyze-   C:\USERS\ALEXANDER\DOCUMENTS\2014-15 WS\GAME PHYSICS\VS_DX_TEMPLATE_GAMEPHYSICS\DXUT11\OPTIONAL\IMEUI.CPP
^C:\USERS\ALEXANDER\DOCUMENTS\2014-15 WS\GAME PHYSICS\VS_DX_TEMPLATE_GAMEPHYSICS\DXUT11\OPTIONAL\SDKMISC.CPP
/c /I..\..\DirectXTK\Inc /I..\Core\ /ZI /nologo /W4 /WX- /Od /Oi /Oy- /D WIN32 /D _DEBUG /D DEBUG /D PROFILE /D _WINDOWS /D _LIB /D USE_DIRECTXTK /D USE_DIRECT3D11_2 /D _WIN32_WINNT=0x0600 /D _UNICODE /D UNICODE /Gm- /EHsc /RTC1 /MDd /GS /arch:SSE2 /fp:fast /Zc:wchar_t /Zc:forScope /openmp- /Yu"DXUT.h" /Fp"BIN\DIRECTXTK_2013\WIN32\DEBUG\DXUTOPT.PCH" /Fo"BIN\DIRECTXTK_2013\WIN32\DEBUG\\" /Fd"BIN\DIRECTXTK_2013\WIN32\DEBUG\DXUTOPT.PDB" /Gd /TP /analyze-   C:\USERS\ALEXANDER\DOCUMENTS\2014-15 WS\GAME PHYSICS\VS_DX_TEMPLATE_GAMEPHYSICS\DXUT11\OPTIONAL\SDKMISC.CPP
