^C:\USERS\ALEXANDER\DOCUMENTS\2014-15 WS\GAME PHYSICS\VS_DX_TEMPLATE_GAMEPHYSICS\DIRECTXTK\SRC\PCH.CPP
C:\USERS\ALEXANDER\DOCUMENTS\2014-15 WS\GAME PHYSICS\VS_DX_TEMPLATE_GAMEPHYSICS\DIRECTXTK\BIN\DESKTOP_2013\WIN32\DEBUG\DIRECTXTK.PCH
C:\USERS\ALEXANDER\DOCUMENTS\2014-15 WS\GAME PHYSICS\VS_DX_TEMPLATE_GAMEPHYSICS\DIRECTXTK\BIN\DESKTOP_2013\WIN32\DEBUG\DIRECTXTK.PDB
C:\USERS\ALEXANDER\DOCUMENTS\2014-15 WS\GAME PHYSICS\VS_DX_TEMPLATE_GAMEPHYSICS\DIRECTXTK\BIN\DESKTOP_2013\WIN32\DEBUG\DIRECTXTK.IDB
C:\USERS\ALEXANDER\DOCUMENTS\2014-15 WS\GAME PHYSICS\VS_DX_TEMPLATE_GAMEPHYSICS\DIRECTXTK\BIN\DESKTOP_2013\WIN32\DEBUG\PCH.OBJ
^C:\USERS\ALEXANDER\DOCUMENTS\2014-15 WS\GAME PHYSICS\VS_DX_TEMPLATE_GAMEPHYSICS\DIRECTXTK\SRC\ALPHATESTEFFECT.CPP|C:\USERS\ALEXANDER\DOCUMENTS\2014-15 WS\GAME PHYSICS\VS_DX_TEMPLATE_GAMEPHYSICS\DIRECTXTK\SRC\BASICEFFECT.CPP|C:\USERS\ALEXANDER\DOCUMENTS\2014-15 WS\GAME PHYSICS\VS_DX_TEMPLATE_GAMEPHYSICS\DIRECTXTK\SRC\BINARYREADER.CPP|C:\USERS\ALEXANDER\DOCUMENTS\2014-15 WS\GAME PHYSICS\VS_DX_TEMPLATE_GAMEPHYSICS\DIRECTXTK\SRC\COMMONSTATES.CPP|C:\USERS\ALEXANDER\DOCUMENTS\2014-15 WS\GAME PHYSICS\VS_DX_TEMPLATE_GAMEPHYSICS\DIRECTXTK\SRC\DDSTEXTURELOADER.CPP|C:\USERS\ALEXANDER\DOCUMENTS\2014-15 WS\GAME PHYSICS\VS_DX_TEMPLATE_GAMEPHYSICS\DIRECTXTK\SRC\DGSLEFFECT.CPP|C:\USERS\ALEXANDER\DOCUMENTS\2014-15 WS\GAME PHYSICS\VS_DX_TEMPLATE_GAMEPHYSICS\DIRECTXTK\SRC\DGSLEFFECTFACTORY.CPP|C:\USERS\ALEXANDER\DOCUMENTS\2014-15 WS\GAME PHYSICS\VS_DX_TEMPLATE_GAMEPHYSICS\DIRECTXTK\SRC\DUALTEXTUREEFFECT.CPP|C:\USERS\ALEXANDER\DOCUMENTS\2014-15 WS\GAME PHYSICS\VS_DX_TEMPLATE_GAMEPHYSICS\DIRECTXTK\SRC\EFFECTCOMMON.CPP|C:\USERS\ALEXANDER\DOCUMENTS\2014-15 WS\GAME PHYSICS\VS_DX_TEMPLATE_GAMEPHYSICS\DIRECTXTK\SRC\EFFECTFACTORY.CPP|C:\USERS\ALEXANDER\DOCUMENTS\2014-15 WS\GAME PHYSICS\VS_DX_TEMPLATE_GAMEPHYSICS\DIRECTXTK\SRC\ENVIRONMENTMAPEFFECT.CPP|C:\USERS\ALEXANDER\DOCUMENTS\2014-15 WS\GAME PHYSICS\VS_DX_TEMPLATE_GAMEPHYSICS\DIRECTXTK\SRC\GAMEPAD.CPP|C:\USERS\ALEXANDER\DOCUMENTS\2014-15 WS\GAME PHYSICS\VS_DX_TEMPLATE_GAMEPHYSICS\DIRECTXTK\SRC\GEOMETRICPRIMITIVE.CPP|C:\USERS\ALEXANDER\DOCUMENTS\2014-15 WS\GAME PHYSICS\VS_DX_TEMPLATE_GAMEPHYSICS\DIRECTXTK\SRC\MODEL.CPP|C:\USERS\ALEXANDER\DOCUMENTS\2014-15 WS\GAME PHYSICS\VS_DX_TEMPLATE_GAMEPHYSICS\DIRECTXTK\SRC\MODELLOADCMO.CPP|C:\USERS\ALEXANDER\DOCUMENTS\2014-15 WS\GAME PHYSICS\VS_DX_TEMPLATE_GAMEPHYSICS\DIRECTXTK\SRC\MODELLOADSDKMESH.CPP|C:\USERS\ALEXANDER\DOCUMENTS\2014-15 WS\GAME PHYSICS\VS_DX_TEMPLATE_GAMEPHYSICS\DIRECTXTK\SRC\PRIMITIVEBATCH.CPP|C:\USERS\ALEXANDER\DOCUMENTS\2014-15 WS\GAME PHYSICS\VS_DX_TEMPLATE_GAMEPHYSICS\DIRECTXTK\SRC\SCREENGRAB.CPP|C:\USERS\ALEXANDER\DOCUMENTS\2014-15 WS\GAME PHYSICS\VS_DX_TEMPLATE_GAMEPHYSICS\DIRECTXTK\SRC\SIMPLEMATH.CPP|C:\USERS\ALEXANDER\DOCUMENTS\2014-15 WS\GAME PHYSICS\VS_DX_TEMPLATE_GAMEPHYSICS\DIRECTXTK\SRC\SKINNEDEFFECT.CPP|C:\USERS\ALEXANDER\DOCUMENTS\2014-15 WS\GAME PHYSICS\VS_DX_TEMPLATE_GAMEPHYSICS\DIRECTXTK\SRC\SPRITEBATCH.CPP|C:\USERS\ALEXANDER\DOCUMENTS\2014-15 WS\GAME PHYSICS\VS_DX_TEMPLATE_GAMEPHYSICS\DIRECTXTK\SRC\SPRITEFONT.CPP|C:\USERS\ALEXANDER\DOCUMENTS\2014-15 WS\GAME PHYSICS\VS_DX_TEMPLATE_GAMEPHYSICS\DIRECTXTK\SRC\VERTEXTYPES.CPP|C:\USERS\ALEXANDER\DOCUMENTS\2014-15 WS\GAME PHYSICS\VS_DX_TEMPLATE_GAMEPHYSICS\DIRECTXTK\SRC\WICTEXTURELOADER.CPP
C:\USERS\ALEXANDER\DOCUMENTS\2014-15 WS\GAME PHYSICS\VS_DX_TEMPLATE_GAMEPHYSICS\DIRECTXTK\BIN\DESKTOP_2013\WIN32\DEBUG\DIRECTXTK.PDB
C:\USERS\ALEXANDER\DOCUMENTS\2014-15 WS\GAME PHYSICS\VS_DX_TEMPLATE_GAMEPHYSICS\DIRECTXTK\BIN\DESKTOP_2013\WIN32\DEBUG\DIRECTXTK.IDB
C:\USERS\ALEXANDER\DOCUMENTS\2014-15 WS\GAME PHYSICS\VS_DX_TEMPLATE_GAMEPHYSICS\DIRECTXTK\BIN\DESKTOP_2013\WIN32\DEBUG\DGSLEFFECT.OBJ
C:\USERS\ALEXANDER\DOCUMENTS\2014-15 WS\GAME PHYSICS\VS_DX_TEMPLATE_GAMEPHYSICS\DIRECTXTK\BIN\DESKTOP_2013\WIN32\DEBUG\DGSLEFFECTFACTORY.OBJ
C:\USERS\ALEXANDER\DOCUMENTS\2014-15 WS\GAME PHYSICS\VS_DX_TEMPLATE_GAMEPHYSICS\DIRECTXTK\BIN\DESKTOP_2013\WIN32\DEBUG\DUALTEXTUREEFFECT.OBJ
C:\USERS\ALEXANDER\DOCUMENTS\2014-15 WS\GAME PHYSICS\VS_DX_TEMPLATE_GAMEPHYSICS\DIRECTXTK\BIN\DESKTOP_2013\WIN32\DEBUG\BINARYREADER.OBJ
C:\USERS\ALEXANDER\DOCUMENTS\2014-15 WS\GAME PHYSICS\VS_DX_TEMPLATE_GAMEPHYSICS\DIRECTXTK\BIN\DESKTOP_2013\WIN32\DEBUG\EFFECTCOMMON.OBJ
C:\USERS\ALEXANDER\DOCUMENTS\2014-15 WS\GAME PHYSICS\VS_DX_TEMPLATE_GAMEPHYSICS\DIRECTXTK\BIN\DESKTOP_2013\WIN32\DEBUG\EFFECTFACTORY.OBJ
C:\USERS\ALEXANDER\DOCUMENTS\2014-15 WS\GAME PHYSICS\VS_DX_TEMPLATE_GAMEPHYSICS\DIRECTXTK\BIN\DESKTOP_2013\WIN32\DEBUG\ENVIRONMENTMAPEFFECT.OBJ
C:\USERS\ALEXANDER\DOCUMENTS\2014-15 WS\GAME PHYSICS\VS_DX_TEMPLATE_GAMEPHYSICS\DIRECTXTK\BIN\DESKTOP_2013\WIN32\DEBUG\GAMEPAD.OBJ
C:\USERS\ALEXANDER\DOCUMENTS\2014-15 WS\GAME PHYSICS\VS_DX_TEMPLATE_GAMEPHYSICS\DIRECTXTK\BIN\DESKTOP_2013\WIN32\DEBUG\GEOMETRICPRIMITIVE.OBJ
C:\USERS\ALEXANDER\DOCUMENTS\2014-15 WS\GAME PHYSICS\VS_DX_TEMPLATE_GAMEPHYSICS\DIRECTXTK\BIN\DESKTOP_2013\WIN32\DEBUG\MODEL.OBJ
C:\USERS\ALEXANDER\DOCUMENTS\2014-15 WS\GAME PHYSICS\VS_DX_TEMPLATE_GAMEPHYSICS\DIRECTXTK\BIN\DESKTOP_2013\WIN32\DEBUG\MODELLOADCMO.OBJ
C:\USERS\ALEXANDER\DOCUMENTS\2014-15 WS\GAME PHYSICS\VS_DX_TEMPLATE_GAMEPHYSICS\DIRECTXTK\BIN\DESKTOP_2013\WIN32\DEBUG\MODELLOADSDKMESH.OBJ
C:\USERS\ALEXANDER\DOCUMENTS\2014-15 WS\GAME PHYSICS\VS_DX_TEMPLATE_GAMEPHYSICS\DIRECTXTK\BIN\DESKTOP_2013\WIN32\DEBUG\SCREENGRAB.OBJ
C:\USERS\ALEXANDER\DOCUMENTS\2014-15 WS\GAME PHYSICS\VS_DX_TEMPLATE_GAMEPHYSICS\DIRECTXTK\BIN\DESKTOP_2013\WIN32\DEBUG\SIMPLEMATH.OBJ
C:\USERS\ALEXANDER\DOCUMENTS\2014-15 WS\GAME PHYSICS\VS_DX_TEMPLATE_GAMEPHYSICS\DIRECTXTK\BIN\DESKTOP_2013\WIN32\DEBUG\SKINNEDEFFECT.OBJ
C:\USERS\ALEXANDER\DOCUMENTS\2014-15 WS\GAME PHYSICS\VS_DX_TEMPLATE_GAMEPHYSICS\DIRECTXTK\BIN\DESKTOP_2013\WIN32\DEBUG\SPRITEBATCH.OBJ
C:\USERS\ALEXANDER\DOCUMENTS\2014-15 WS\GAME PHYSICS\VS_DX_TEMPLATE_GAMEPHYSICS\DIRECTXTK\BIN\DESKTOP_2013\WIN32\DEBUG\PRIMITIVEBATCH.OBJ
C:\USERS\ALEXANDER\DOCUMENTS\2014-15 WS\GAME PHYSICS\VS_DX_TEMPLATE_GAMEPHYSICS\DIRECTXTK\BIN\DESKTOP_2013\WIN32\DEBUG\SPRITEFONT.OBJ
C:\USERS\ALEXANDER\DOCUMENTS\2014-15 WS\GAME PHYSICS\VS_DX_TEMPLATE_GAMEPHYSICS\DIRECTXTK\BIN\DESKTOP_2013\WIN32\DEBUG\VERTEXTYPES.OBJ
C:\USERS\ALEXANDER\DOCUMENTS\2014-15 WS\GAME PHYSICS\VS_DX_TEMPLATE_GAMEPHYSICS\DIRECTXTK\BIN\DESKTOP_2013\WIN32\DEBUG\WICTEXTURELOADER.OBJ
C:\USERS\ALEXANDER\DOCUMENTS\2014-15 WS\GAME PHYSICS\VS_DX_TEMPLATE_GAMEPHYSICS\DIRECTXTK\BIN\DESKTOP_2013\WIN32\DEBUG\ALPHATESTEFFECT.OBJ
C:\USERS\ALEXANDER\DOCUMENTS\2014-15 WS\GAME PHYSICS\VS_DX_TEMPLATE_GAMEPHYSICS\DIRECTXTK\BIN\DESKTOP_2013\WIN32\DEBUG\BASICEFFECT.OBJ
C:\USERS\ALEXANDER\DOCUMENTS\2014-15 WS\GAME PHYSICS\VS_DX_TEMPLATE_GAMEPHYSICS\DIRECTXTK\BIN\DESKTOP_2013\WIN32\DEBUG\COMMONSTATES.OBJ
C:\USERS\ALEXANDER\DOCUMENTS\2014-15 WS\GAME PHYSICS\VS_DX_TEMPLATE_GAMEPHYSICS\DIRECTXTK\BIN\DESKTOP_2013\WIN32\DEBUG\DDSTEXTURELOADER.OBJ
^C:\USERS\ALEXANDER\DOCUMENTS\2014-15 WS\GAME PHYSICS\VS_DX_TEMPLATE_GAMEPHYSICS\DIRECTXTK\SRC\ALPHATESTEFFECT.CPP
C:\USERS\ALEXANDER\DOCUMENTS\2014-15 WS\GAME PHYSICS\VS_DX_TEMPLATE_GAMEPHYSICS\DIRECTXTK\BIN\DESKTOP_2013\WIN32\DEBUG\DIRECTXTK.PDB
^C:\USERS\ALEXANDER\DOCUMENTS\2014-15 WS\GAME PHYSICS\VS_DX_TEMPLATE_GAMEPHYSICS\DIRECTXTK\SRC\BASICEFFECT.CPP
C:\USERS\ALEXANDER\DOCUMENTS\2014-15 WS\GAME PHYSICS\VS_DX_TEMPLATE_GAMEPHYSICS\DIRECTXTK\BIN\DESKTOP_2013\WIN32\DEBUG\DIRECTXTK.PDB
^C:\USERS\ALEXANDER\DOCUMENTS\2014-15 WS\GAME PHYSICS\VS_DX_TEMPLATE_GAMEPHYSICS\DIRECTXTK\SRC\COMMONSTATES.CPP
C:\USERS\ALEXANDER\DOCUMENTS\2014-15 WS\GAME PHYSICS\VS_DX_TEMPLATE_GAMEPHYSICS\DIRECTXTK\BIN\DESKTOP_2013\WIN32\DEBUG\DIRECTXTK.PDB
^C:\USERS\ALEXANDER\DOCUMENTS\2014-15 WS\GAME PHYSICS\VS_DX_TEMPLATE_GAMEPHYSICS\DIRECTXTK\SRC\DDSTEXTURELOADER.CPP
C:\USERS\ALEXANDER\DOCUMENTS\2014-15 WS\GAME PHYSICS\VS_DX_TEMPLATE_GAMEPHYSICS\DIRECTXTK\BIN\DESKTOP_2013\WIN32\DEBUG\DIRECTXTK.PDB
^C:\USERS\ALEXANDER\DOCUMENTS\2014-15 WS\GAME PHYSICS\VS_DX_TEMPLATE_GAMEPHYSICS\DIRECTXTK\SRC\DGSLEFFECT.CPP
C:\USERS\ALEXANDER\DOCUMENTS\2014-15 WS\GAME PHYSICS\VS_DX_TEMPLATE_GAMEPHYSICS\DIRECTXTK\BIN\DESKTOP_2013\WIN32\DEBUG\DIRECTXTK.PDB
^C:\USERS\ALEXANDER\DOCUMENTS\2014-15 WS\GAME PHYSICS\VS_DX_TEMPLATE_GAMEPHYSICS\DIRECTXTK\SRC\DGSLEFFECTFACTORY.CPP
C:\USERS\ALEXANDER\DOCUMENTS\2014-15 WS\GAME PHYSICS\VS_DX_TEMPLATE_GAMEPHYSICS\DIRECTXTK\BIN\DESKTOP_2013\WIN32\DEBUG\DIRECTXTK.PDB
^C:\USERS\ALEXANDER\DOCUMENTS\2014-15 WS\GAME PHYSICS\VS_DX_TEMPLATE_GAMEPHYSICS\DIRECTXTK\SRC\DUALTEXTUREEFFECT.CPP
C:\USERS\ALEXANDER\DOCUMENTS\2014-15 WS\GAME PHYSICS\VS_DX_TEMPLATE_GAMEPHYSICS\DIRECTXTK\BIN\DESKTOP_2013\WIN32\DEBUG\DIRECTXTK.PDB
^C:\USERS\ALEXANDER\DOCUMENTS\2014-15 WS\GAME PHYSICS\VS_DX_TEMPLATE_GAMEPHYSICS\DIRECTXTK\SRC\BINARYREADER.CPP
C:\USERS\ALEXANDER\DOCUMENTS\2014-15 WS\GAME PHYSICS\VS_DX_TEMPLATE_GAMEPHYSICS\DIRECTXTK\BIN\DESKTOP_2013\WIN32\DEBUG\DIRECTXTK.PDB
^C:\USERS\ALEXANDER\DOCUMENTS\2014-15 WS\GAME PHYSICS\VS_DX_TEMPLATE_GAMEPHYSICS\DIRECTXTK\SRC\EFFECTCOMMON.CPP
C:\USERS\ALEXANDER\DOCUMENTS\2014-15 WS\GAME PHYSICS\VS_DX_TEMPLATE_GAMEPHYSICS\DIRECTXTK\BIN\DESKTOP_2013\WIN32\DEBUG\DIRECTXTK.PDB
^C:\USERS\ALEXANDER\DOCUMENTS\2014-15 WS\GAME PHYSICS\VS_DX_TEMPLATE_GAMEPHYSICS\DIRECTXTK\SRC\EFFECTFACTORY.CPP
C:\USERS\ALEXANDER\DOCUMENTS\2014-15 WS\GAME PHYSICS\VS_DX_TEMPLATE_GAMEPHYSICS\DIRECTXTK\BIN\DESKTOP_2013\WIN32\DEBUG\DIRECTXTK.PDB
^C:\USERS\ALEXANDER\DOCUMENTS\2014-15 WS\GAME PHYSICS\VS_DX_TEMPLATE_GAMEPHYSICS\DIRECTXTK\SRC\ENVIRONMENTMAPEFFECT.CPP
C:\USERS\ALEXANDER\DOCUMENTS\2014-15 WS\GAME PHYSICS\VS_DX_TEMPLATE_GAMEPHYSICS\DIRECTXTK\BIN\DESKTOP_2013\WIN32\DEBUG\DIRECTXTK.PDB
^C:\USERS\ALEXANDER\DOCUMENTS\2014-15 WS\GAME PHYSICS\VS_DX_TEMPLATE_GAMEPHYSICS\DIRECTXTK\SRC\GAMEPAD.CPP
C:\USERS\ALEXANDER\DOCUMENTS\2014-15 WS\GAME PHYSICS\VS_DX_TEMPLATE_GAMEPHYSICS\DIRECTXTK\BIN\DESKTOP_2013\WIN32\DEBUG\DIRECTXTK.PDB
^C:\USERS\ALEXANDER\DOCUMENTS\2014-15 WS\GAME PHYSICS\VS_DX_TEMPLATE_GAMEPHYSICS\DIRECTXTK\SRC\GEOMETRICPRIMITIVE.CPP
C:\USERS\ALEXANDER\DOCUMENTS\2014-15 WS\GAME PHYSICS\VS_DX_TEMPLATE_GAMEPHYSICS\DIRECTXTK\BIN\DESKTOP_2013\WIN32\DEBUG\DIRECTXTK.PDB
^C:\USERS\ALEXANDER\DOCUMENTS\2014-15 WS\GAME PHYSICS\VS_DX_TEMPLATE_GAMEPHYSICS\DIRECTXTK\SRC\MODEL.CPP
C:\USERS\ALEXANDER\DOCUMENTS\2014-15 WS\GAME PHYSICS\VS_DX_TEMPLATE_GAMEPHYSICS\DIRECTXTK\BIN\DESKTOP_2013\WIN32\DEBUG\DIRECTXTK.PDB
^C:\USERS\ALEXANDER\DOCUMENTS\2014-15 WS\GAME PHYSICS\VS_DX_TEMPLATE_GAMEPHYSICS\DIRECTXTK\SRC\MODELLOADCMO.CPP
C:\USERS\ALEXANDER\DOCUMENTS\2014-15 WS\GAME PHYSICS\VS_DX_TEMPLATE_GAMEPHYSICS\DIRECTXTK\BIN\DESKTOP_2013\WIN32\DEBUG\DIRECTXTK.PDB
^C:\USERS\ALEXANDER\DOCUMENTS\2014-15 WS\GAME PHYSICS\VS_DX_TEMPLATE_GAMEPHYSICS\DIRECTXTK\SRC\MODELLOADSDKMESH.CPP
C:\USERS\ALEXANDER\DOCUMENTS\2014-15 WS\GAME PHYSICS\VS_DX_TEMPLATE_GAMEPHYSICS\DIRECTXTK\BIN\DESKTOP_2013\WIN32\DEBUG\DIRECTXTK.PDB
^C:\USERS\ALEXANDER\DOCUMENTS\2014-15 WS\GAME PHYSICS\VS_DX_TEMPLATE_GAMEPHYSICS\DIRECTXTK\SRC\SCREENGRAB.CPP
C:\USERS\ALEXANDER\DOCUMENTS\2014-15 WS\GAME PHYSICS\VS_DX_TEMPLATE_GAMEPHYSICS\DIRECTXTK\BIN\DESKTOP_2013\WIN32\DEBUG\DIRECTXTK.PDB
^C:\USERS\ALEXANDER\DOCUMENTS\2014-15 WS\GAME PHYSICS\VS_DX_TEMPLATE_GAMEPHYSICS\DIRECTXTK\SRC\SIMPLEMATH.CPP
C:\USERS\ALEXANDER\DOCUMENTS\2014-15 WS\GAME PHYSICS\VS_DX_TEMPLATE_GAMEPHYSICS\DIRECTXTK\BIN\DESKTOP_2013\WIN32\DEBUG\DIRECTXTK.PDB
^C:\USERS\ALEXANDER\DOCUMENTS\2014-15 WS\GAME PHYSICS\VS_DX_TEMPLATE_GAMEPHYSICS\DIRECTXTK\SRC\SKINNEDEFFECT.CPP
C:\USERS\ALEXANDER\DOCUMENTS\2014-15 WS\GAME PHYSICS\VS_DX_TEMPLATE_GAMEPHYSICS\DIRECTXTK\BIN\DESKTOP_2013\WIN32\DEBUG\DIRECTXTK.PDB
^C:\USERS\ALEXANDER\DOCUMENTS\2014-15 WS\GAME PHYSICS\VS_DX_TEMPLATE_GAMEPHYSICS\DIRECTXTK\SRC\SPRITEBATCH.CPP
C:\USERS\ALEXANDER\DOCUMENTS\2014-15 WS\GAME PHYSICS\VS_DX_TEMPLATE_GAMEPHYSICS\DIRECTXTK\BIN\DESKTOP_2013\WIN32\DEBUG\DIRECTXTK.PDB
^C:\USERS\ALEXANDER\DOCUMENTS\2014-15 WS\GAME PHYSICS\VS_DX_TEMPLATE_GAMEPHYSICS\DIRECTXTK\SRC\PRIMITIVEBATCH.CPP
C:\USERS\ALEXANDER\DOCUMENTS\2014-15 WS\GAME PHYSICS\VS_DX_TEMPLATE_GAMEPHYSICS\DIRECTXTK\BIN\DESKTOP_2013\WIN32\DEBUG\DIRECTXTK.PDB
^C:\USERS\ALEXANDER\DOCUMENTS\2014-15 WS\GAME PHYSICS\VS_DX_TEMPLATE_GAMEPHYSICS\DIRECTXTK\SRC\SPRITEFONT.CPP
C:\USERS\ALEXANDER\DOCUMENTS\2014-15 WS\GAME PHYSICS\VS_DX_TEMPLATE_GAMEPHYSICS\DIRECTXTK\BIN\DESKTOP_2013\WIN32\DEBUG\DIRECTXTK.PDB
^C:\USERS\ALEXANDER\DOCUMENTS\2014-15 WS\GAME PHYSICS\VS_DX_TEMPLATE_GAMEPHYSICS\DIRECTXTK\SRC\VERTEXTYPES.CPP
C:\USERS\ALEXANDER\DOCUMENTS\2014-15 WS\GAME PHYSICS\VS_DX_TEMPLATE_GAMEPHYSICS\DIRECTXTK\BIN\DESKTOP_2013\WIN32\DEBUG\DIRECTXTK.PDB
^C:\USERS\ALEXANDER\DOCUMENTS\2014-15 WS\GAME PHYSICS\VS_DX_TEMPLATE_GAMEPHYSICS\DIRECTXTK\SRC\WICTEXTURELOADER.CPP
C:\USERS\ALEXANDER\DOCUMENTS\2014-15 WS\GAME PHYSICS\VS_DX_TEMPLATE_GAMEPHYSICS\DIRECTXTK\BIN\DESKTOP_2013\WIN32\DEBUG\DIRECTXTK.PDB
